<?xml version="1.0" encoding="UTF-8"?><svg xmlns="http://www.w3.org/2000/svg" xmlns:xlink="http://www.w3.org/1999/xlink" stroke-dasharray="none" shape-rendering="auto" font-family="'Dialog'" width="1310" text-rendering="auto" fill-opacity="1" contentScriptType="text/ecmascript" color-interpolation="auto" color-rendering="auto" preserveAspectRatio="xMidYMid meet" font-size="12" fill="black" stroke="black" image-rendering="auto" stroke-miterlimit="10" zoomAndPan="magnify" version="1.0" stroke-linecap="square" stroke-linejoin="miter" contentStyleType="text/css" font-style="normal" height="545" stroke-width="1" stroke-dashoffset="0" font-weight="normal" stroke-opacity="1">
<!--Generated by the Batik Graphics2D SVG Generator-->
<defs id="genericDefs"/>
<g>
<defs id="defs1">
<clipPath clipPathUnits="userSpaceOnUse" id="clipPath1">
<path d="M37 24 L1273 24 L1273 522 L37 522 L37 24 Z"/>
</clipPath>
<clipPath clipPathUnits="userSpaceOnUse" id="clipPath2">
<path d="M-1 -1 L1311 -1 L1311 546 L-1 546 L-1 -1 Z"/>
</clipPath>
<clipPath clipPathUnits="userSpaceOnUse" id="clipPath3">
<path d="M37 520 L1273 520 L1273 546 L37 546 L37 520 Z"/>
</clipPath>
</defs>
<g font-size="15" fill="white" text-rendering="geometricPrecision" font-family="'Cantarell'" stroke-linejoin="round" stroke="white" stroke-width="0" stroke-miterlimit="0">
<rect x="38" y="25" clip-path="url(#clipPath1)" width="1234" height="496" stroke="none"/>
</g>
<g stroke-linecap="butt" font-size="15" fill="rgb(204,204,204)" text-rendering="geometricPrecision" font-family="'Cantarell'" stroke-dasharray="3,3" stroke="rgb(204,204,204)">
<line clip-path="url(#clipPath1)" fill="none" x1="38" x2="1272" y1="521" y2="521"/>
<line clip-path="url(#clipPath1)" fill="none" x1="38" x2="1272" y1="421" y2="421"/>
<line clip-path="url(#clipPath1)" fill="none" x1="38" x2="1272" y1="322" y2="322"/>
<line clip-path="url(#clipPath1)" fill="none" x1="38" x2="1272" y1="223" y2="223"/>
<line clip-path="url(#clipPath1)" fill="none" x1="38" x2="1272" y1="123" y2="123"/>
<rect x="963" y="70" clip-path="url(#clipPath1)" fill="rgb(0,0,139)" width="154" height="450" stroke="none"/>
<rect x="963" y="70" clip-path="url(#clipPath1)" fill="none" width="154" stroke-dasharray="none" height="450"/>
<rect x="770" y="91" clip-path="url(#clipPath1)" fill="rgb(0,0,139)" width="154" stroke-dasharray="none" height="429" stroke="none"/>
<rect x="770" y="91" clip-path="url(#clipPath1)" fill="none" width="154" stroke-dasharray="none" height="429"/>
<rect x="577" y="90" clip-path="url(#clipPath1)" fill="rgb(0,0,139)" width="154" stroke-dasharray="none" height="430" stroke="none"/>
<rect x="577" y="90" clip-path="url(#clipPath1)" fill="none" width="154" stroke-dasharray="none" height="430"/>
<rect x="385" y="88" clip-path="url(#clipPath1)" fill="rgb(0,0,139)" width="154" stroke-dasharray="none" height="432" stroke="none"/>
<rect x="385" y="88" clip-path="url(#clipPath1)" fill="none" width="154" stroke-dasharray="none" height="432"/>
<rect x="192" y="70" clip-path="url(#clipPath1)" fill="rgb(0,0,139)" width="154" stroke-dasharray="none" height="450" stroke="none"/>
<rect x="192" y="70" clip-path="url(#clipPath1)" fill="none" width="154" stroke-dasharray="none" height="450"/>
<rect x="38" y="25" clip-path="url(#clipPath2)" fill="none" width="1234" stroke-dasharray="none" height="496" stroke="black"/>
<line clip-path="url(#clipPath2)" fill="none" x1="39" x2="1271" y1="521" y2="521" stroke-dasharray="none"/>
</g>
<g text-rendering="geometricPrecision" font-size="13" stroke-linecap="butt">
<text xml:space="preserve" x="569" y="13" clip-path="url(#clipPath2)" stroke="none">(Normal) Clients packets sent</text>
<line clip-path="url(#clipPath2)" fill="none" x1="36" x2="36" y1="25" y2="521"/>
<line clip-path="url(#clipPath2)" fill="none" x1="1274" x2="1274" y1="25" y2="521"/>
<line clip-path="url(#clipPath2)" fill="none" x1="32" x2="36" y1="521" y2="521"/>
<line clip-path="url(#clipPath2)" fill="none" x1="1278" x2="1274" y1="521" y2="521"/>
<text x="26" font-size="11" y="526" clip-path="url(#clipPath2)" stroke="none" xml:space="preserve">0</text>
<text x="1281" font-size="11" y="526" clip-path="url(#clipPath2)" stroke="none" xml:space="preserve">0</text>
<line clip-path="url(#clipPath2)" fill="none" x1="34" x2="36" y1="501" y2="501"/>
<line clip-path="url(#clipPath2)" fill="none" x1="1276" x2="1274" y1="501" y2="501"/>
<line clip-path="url(#clipPath2)" fill="none" x1="34" x2="36" y1="481" y2="481"/>
<line clip-path="url(#clipPath2)" fill="none" x1="1276" x2="1274" y1="481" y2="481"/>
<line clip-path="url(#clipPath2)" fill="none" x1="34" x2="36" y1="461" y2="461"/>
<line clip-path="url(#clipPath2)" fill="none" x1="1276" x2="1274" y1="461" y2="461"/>
<line clip-path="url(#clipPath2)" fill="none" x1="34" x2="36" y1="441" y2="441"/>
<line clip-path="url(#clipPath2)" fill="none" x1="1276" x2="1274" y1="441" y2="441"/>
<line clip-path="url(#clipPath2)" fill="none" x1="32" x2="36" y1="421" y2="421"/>
<line clip-path="url(#clipPath2)" fill="none" x1="1278" x2="1274" y1="421" y2="421"/>
<text x="11" font-size="11" y="426" clip-path="url(#clipPath2)" stroke="none" xml:space="preserve">1000</text>
<text x="1281" font-size="11" y="426" clip-path="url(#clipPath2)" stroke="none" xml:space="preserve">1000</text>
<line clip-path="url(#clipPath2)" fill="none" x1="34" x2="36" y1="401" y2="401"/>
<line clip-path="url(#clipPath2)" fill="none" x1="1276" x2="1274" y1="401" y2="401"/>
<line clip-path="url(#clipPath2)" fill="none" x1="34" x2="36" y1="381" y2="381"/>
<line clip-path="url(#clipPath2)" fill="none" x1="1276" x2="1274" y1="381" y2="381"/>
<line clip-path="url(#clipPath2)" fill="none" x1="34" x2="36" y1="362" y2="362"/>
<line clip-path="url(#clipPath2)" fill="none" x1="1276" x2="1274" y1="362" y2="362"/>
<line clip-path="url(#clipPath2)" fill="none" x1="34" x2="36" y1="342" y2="342"/>
<line clip-path="url(#clipPath2)" fill="none" x1="1276" x2="1274" y1="342" y2="342"/>
<line clip-path="url(#clipPath2)" fill="none" x1="32" x2="36" y1="322" y2="322"/>
<line clip-path="url(#clipPath2)" fill="none" x1="1278" x2="1274" y1="322" y2="322"/>
<text x="11" font-size="11" y="327" clip-path="url(#clipPath2)" stroke="none" xml:space="preserve">2000</text>
<text x="1281" font-size="11" y="327" clip-path="url(#clipPath2)" stroke="none" xml:space="preserve">2000</text>
<line clip-path="url(#clipPath2)" fill="none" x1="34" x2="36" y1="302" y2="302"/>
<line clip-path="url(#clipPath2)" fill="none" x1="1276" x2="1274" y1="302" y2="302"/>
<line clip-path="url(#clipPath2)" fill="none" x1="34" x2="36" y1="282" y2="282"/>
<line clip-path="url(#clipPath2)" fill="none" x1="1276" x2="1274" y1="282" y2="282"/>
<line clip-path="url(#clipPath2)" fill="none" x1="34" x2="36" y1="262" y2="262"/>
<line clip-path="url(#clipPath2)" fill="none" x1="1276" x2="1274" y1="262" y2="262"/>
<line clip-path="url(#clipPath2)" fill="none" x1="34" x2="36" y1="242" y2="242"/>
<line clip-path="url(#clipPath2)" fill="none" x1="1276" x2="1274" y1="242" y2="242"/>
<line clip-path="url(#clipPath2)" fill="none" x1="32" x2="36" y1="223" y2="223"/>
<line clip-path="url(#clipPath2)" fill="none" x1="1278" x2="1274" y1="223" y2="223"/>
<text x="11" font-size="11" y="228" clip-path="url(#clipPath2)" stroke="none" xml:space="preserve">3000</text>
<text x="1281" font-size="11" y="228" clip-path="url(#clipPath2)" stroke="none" xml:space="preserve">3000</text>
<line clip-path="url(#clipPath2)" fill="none" x1="34" x2="36" y1="203" y2="203"/>
<line clip-path="url(#clipPath2)" fill="none" x1="1276" x2="1274" y1="203" y2="203"/>
<line clip-path="url(#clipPath2)" fill="none" x1="34" x2="36" y1="183" y2="183"/>
<line clip-path="url(#clipPath2)" fill="none" x1="1276" x2="1274" y1="183" y2="183"/>
<line clip-path="url(#clipPath2)" fill="none" x1="34" x2="36" y1="163" y2="163"/>
<line clip-path="url(#clipPath2)" fill="none" x1="1276" x2="1274" y1="163" y2="163"/>
<line clip-path="url(#clipPath2)" fill="none" x1="34" x2="36" y1="143" y2="143"/>
<line clip-path="url(#clipPath2)" fill="none" x1="1276" x2="1274" y1="143" y2="143"/>
<line clip-path="url(#clipPath2)" fill="none" x1="32" x2="36" y1="123" y2="123"/>
<line clip-path="url(#clipPath2)" fill="none" x1="1278" x2="1274" y1="123" y2="123"/>
<text x="11" font-size="11" y="128" clip-path="url(#clipPath2)" stroke="none" xml:space="preserve">4000</text>
<text x="1281" font-size="11" y="128" clip-path="url(#clipPath2)" stroke="none" xml:space="preserve">4000</text>
<line clip-path="url(#clipPath2)" fill="none" x1="34" x2="36" y1="103" y2="103"/>
<line clip-path="url(#clipPath2)" fill="none" x1="1276" x2="1274" y1="103" y2="103"/>
<line clip-path="url(#clipPath2)" fill="none" x1="34" x2="36" y1="84" y2="84"/>
<line clip-path="url(#clipPath2)" fill="none" x1="1276" x2="1274" y1="84" y2="84"/>
<line clip-path="url(#clipPath2)" fill="none" x1="34" x2="36" y1="64" y2="64"/>
<line clip-path="url(#clipPath2)" fill="none" x1="1276" x2="1274" y1="64" y2="64"/>
<line clip-path="url(#clipPath2)" fill="none" x1="34" x2="36" y1="44" y2="44"/>
<line clip-path="url(#clipPath2)" fill="none" x1="1276" x2="1274" y1="44" y2="44"/>
<line clip-path="url(#clipPath3)" fill="none" x1="192" x2="346" y1="525" y2="525"/>
<line clip-path="url(#clipPath3)" fill="none" x1="385" x2="539" y1="525" y2="525"/>
<line clip-path="url(#clipPath3)" fill="none" x1="577" x2="731" y1="525" y2="525"/>
<line clip-path="url(#clipPath3)" fill="none" x1="770" x2="924" y1="525" y2="525"/>
<line clip-path="url(#clipPath3)" fill="none" x1="963" x2="1117" y1="525" y2="525"/>
<text x="192" font-size="11" y="537" clip-path="url(#clipPath3)" stroke="none" xml:space="preserve">Chinanet.Clients[0].ppp[0].ppp</text>
<text x="385" font-size="11" y="537" clip-path="url(#clipPath3)" stroke="none" xml:space="preserve">Chinanet.Clients[1].ppp[0].ppp</text>
<text x="577" font-size="11" y="537" clip-path="url(#clipPath3)" stroke="none" xml:space="preserve">Chinanet.Clients[2].ppp[0].ppp</text>
<text x="770" font-size="11" y="537" clip-path="url(#clipPath3)" stroke="none" xml:space="preserve">Chinanet.Clients[3].ppp[0].ppp</text>
<text x="963" font-size="11" y="537" clip-path="url(#clipPath3)" stroke="none" xml:space="preserve">Chinanet.Clients[4].ppp[0].ppp</text>
</g>
</g>
</svg>
